EESchema Schematic File Version 4
EELAYER 30 0
EELAYER END
$Descr A4 11693 8268
encoding utf-8
Sheet 1 1
Title ""
Date ""
Rev ""
Comp ""
Comment1 ""
Comment2 ""
Comment3 ""
Comment4 ""
$EndDescr
$Comp
L Connector:Raspberry_Pi_2_3 J1
U 1 1 5FF0FB07
P 3200 3700
F 0 "J1" H 3200 5181 50  0000 C CNN
F 1 "Raspberry_Pi_2_3" H 3200 5090 50  0000 C CNN
F 2 "Connector_PinHeader_2.54mm:PinHeader_2x20_P2.54mm_Vertical" H 3200 3700 50  0001 C CNN
F 3 "https://www.raspberrypi.org/documentation/hardware/raspberrypi/schematics/rpi_SCH_3bplus_1p0_reduced.pdf" H 3200 3700 50  0001 C CNN
	1    3200 3700
	1    0    0    -1  
$EndComp
$Comp
L Analog_ADC:ADS1015IDGS U1
U 1 1 5FF1422D
P 5325 3100
F 0 "U1" H 5325 3781 50  0000 C CNN
F 1 "ADS1015IDGS" H 5325 3690 50  0000 C CNN
F 2 "Package_SO:TSSOP-10_3x3mm_P0.5mm" H 5325 2600 50  0001 C CNN
F 3 "http://www.ti.com/lit/ds/symlink/ads1015.pdf" H 5275 2200 50  0001 C CNN
	1    5325 3100
	-1   0    0    -1  
$EndComp
$Comp
L Sensor_Current:ACS722xLCTR-20AU U2
U 1 1 5FF16878
P 6900 3200
F 0 "U2" H 6900 3781 50  0000 C CNN
F 1 "ACS722xLCTR-20AU" H 6900 3690 50  0000 C CNN
F 2 "Package_SO:SOIC-8_3.9x4.9mm_P1.27mm" H 7000 2850 50  0001 L CIN
F 3 "http://www.allegromicro.com/~/media/Files/Datasheets/ACS722-Datasheet.ashx?la=en" H 6900 3200 50  0001 C CNN
	1    6900 3200
	-1   0    0    -1  
$EndComp
Wire Wire Line
	2600 4725 2600 4700
Wire Wire Line
	4000 3200 4625 3200
Wire Wire Line
	4000 3100 4375 3100
Wire Wire Line
	5725 3000 6500 3000
$Comp
L power:GND #PWR0101
U 1 1 5FF25A35
P 6900 3600
F 0 "#PWR0101" H 6900 3350 50  0001 C CNN
F 1 "GND" H 6905 3427 50  0000 C CNN
F 2 "" H 6900 3600 50  0001 C CNN
F 3 "" H 6900 3600 50  0001 C CNN
	1    6900 3600
	1    0    0    -1  
$EndComp
$Comp
L power:GND #PWR0102
U 1 1 5FF26113
P 5325 3500
F 0 "#PWR0102" H 5325 3250 50  0001 C CNN
F 1 "GND" H 5330 3327 50  0000 C CNN
F 2 "" H 5325 3500 50  0001 C CNN
F 3 "" H 5325 3500 50  0001 C CNN
	1    5325 3500
	1    0    0    -1  
$EndComp
$Comp
L power:GND #PWR0103
U 1 1 5FF26A5B
P 2800 5000
F 0 "#PWR0103" H 2800 4750 50  0001 C CNN
F 1 "GND" H 2805 4827 50  0000 C CNN
F 2 "" H 2800 5000 50  0001 C CNN
F 3 "" H 2800 5000 50  0001 C CNN
	1    2800 5000
	1    0    0    -1  
$EndComp
$Comp
L power:GND #PWR0104
U 1 1 5FF27314
P 2900 5000
F 0 "#PWR0104" H 2900 4750 50  0001 C CNN
F 1 "GND" H 2905 4827 50  0000 C CNN
F 2 "" H 2900 5000 50  0001 C CNN
F 3 "" H 2900 5000 50  0001 C CNN
	1    2900 5000
	1    0    0    -1  
$EndComp
$Comp
L power:GND #PWR0105
U 1 1 5FF27881
P 3000 5000
F 0 "#PWR0105" H 3000 4750 50  0001 C CNN
F 1 "GND" H 3005 4827 50  0000 C CNN
F 2 "" H 3000 5000 50  0001 C CNN
F 3 "" H 3000 5000 50  0001 C CNN
	1    3000 5000
	1    0    0    -1  
$EndComp
$Comp
L power:GND #PWR0106
U 1 1 5FF27B85
P 3100 5000
F 0 "#PWR0106" H 3100 4750 50  0001 C CNN
F 1 "GND" H 3105 4827 50  0000 C CNN
F 2 "" H 3100 5000 50  0001 C CNN
F 3 "" H 3100 5000 50  0001 C CNN
	1    3100 5000
	1    0    0    -1  
$EndComp
$Comp
L power:GND #PWR0107
U 1 1 5FF27E3B
P 3200 5000
F 0 "#PWR0107" H 3200 4750 50  0001 C CNN
F 1 "GND" H 3205 4827 50  0000 C CNN
F 2 "" H 3200 5000 50  0001 C CNN
F 3 "" H 3200 5000 50  0001 C CNN
	1    3200 5000
	1    0    0    -1  
$EndComp
$Comp
L power:GND #PWR0108
U 1 1 5FF2829C
P 3300 5000
F 0 "#PWR0108" H 3300 4750 50  0001 C CNN
F 1 "GND" H 3305 4827 50  0000 C CNN
F 2 "" H 3300 5000 50  0001 C CNN
F 3 "" H 3300 5000 50  0001 C CNN
	1    3300 5000
	1    0    0    -1  
$EndComp
$Comp
L power:GND #PWR0109
U 1 1 5FF2858C
P 3400 5000
F 0 "#PWR0109" H 3400 4750 50  0001 C CNN
F 1 "GND" H 3405 4827 50  0000 C CNN
F 2 "" H 3400 5000 50  0001 C CNN
F 3 "" H 3400 5000 50  0001 C CNN
	1    3400 5000
	1    0    0    -1  
$EndComp
$Comp
L power:GND #PWR0110
U 1 1 5FF288DD
P 3500 5000
F 0 "#PWR0110" H 3500 4750 50  0001 C CNN
F 1 "GND" H 3505 4827 50  0000 C CNN
F 2 "" H 3500 5000 50  0001 C CNN
F 3 "" H 3500 5000 50  0001 C CNN
	1    3500 5000
	1    0    0    -1  
$EndComp
$Comp
L power:+3V3 #PWR0111
U 1 1 5FF2CAC9
P 3300 2400
F 0 "#PWR0111" H 3300 2250 50  0001 C CNN
F 1 "+3V3" H 3315 2573 50  0000 C CNN
F 2 "" H 3300 2400 50  0001 C CNN
F 3 "" H 3300 2400 50  0001 C CNN
	1    3300 2400
	1    0    0    -1  
$EndComp
$Comp
L power:+3V3 #PWR0112
U 1 1 5FF2DDBC
P 3400 2400
F 0 "#PWR0112" H 3400 2250 50  0001 C CNN
F 1 "+3V3" H 3415 2573 50  0000 C CNN
F 2 "" H 3400 2400 50  0001 C CNN
F 3 "" H 3400 2400 50  0001 C CNN
	1    3400 2400
	1    0    0    -1  
$EndComp
$Comp
L power:+3V3 #PWR0113
U 1 1 5FF2E4A6
P 5325 2600
F 0 "#PWR0113" H 5325 2450 50  0001 C CNN
F 1 "+3V3" H 5340 2773 50  0000 C CNN
F 2 "" H 5325 2600 50  0001 C CNN
F 3 "" H 5325 2600 50  0001 C CNN
	1    5325 2600
	1    0    0    -1  
$EndComp
$Comp
L power:+3V3 #PWR0114
U 1 1 5FF2F245
P 6900 2800
F 0 "#PWR0114" H 6900 2650 50  0001 C CNN
F 1 "+3V3" H 6915 2973 50  0000 C CNN
F 2 "" H 6900 2800 50  0001 C CNN
F 3 "" H 6900 2800 50  0001 C CNN
	1    6900 2800
	1    0    0    -1  
$EndComp
$Comp
L Connector:Screw_Terminal_01x02 Jin1
U 1 1 5FF320B4
P 7725 2500
F 0 "Jin1" V 7689 2312 50  0000 R CNN
F 1 "Screw_Terminal_01x02" V 7598 2312 50  0000 R CNN
F 2 "TerminalBlock:TerminalBlock_Wuerth_691311400102_P7.62mm" H 7725 2500 50  0001 C CNN
F 3 "~" H 7725 2500 50  0001 C CNN
	1    7725 2500
	0    -1   -1   0   
$EndComp
$Comp
L Connector:Screw_Terminal_01x02 Jout1
U 1 1 5FF33277
P 7825 4025
F 0 "Jout1" V 7697 4105 50  0000 L CNN
F 1 "Screw_Terminal_01x02" V 7788 4105 50  0000 L CNN
F 2 "TerminalBlock:TerminalBlock_Wuerth_691311400102_P7.62mm" H 7825 4025 50  0001 C CNN
F 3 "~" H 7825 4025 50  0001 C CNN
	1    7825 4025
	0    1    1    0   
$EndComp
Wire Wire Line
	7725 2700 7725 3000
Wire Wire Line
	7725 3000 7300 3000
Wire Wire Line
	7300 3300 7725 3300
Wire Wire Line
	7725 3300 7725 3825
Wire Wire Line
	7825 2700 7825 3100
$Comp
L power:GND #PWR0115
U 1 1 5FF34EDC
P 8050 3100
F 0 "#PWR0115" H 8050 2850 50  0001 C CNN
F 1 "GND" H 8055 2927 50  0000 C CNN
F 2 "" H 8050 3100 50  0001 C CNN
F 3 "" H 8050 3100 50  0001 C CNN
	1    8050 3100
	1    0    0    -1  
$EndComp
Wire Wire Line
	8050 3100 7825 3100
Connection ~ 7825 3100
Wire Wire Line
	7825 3100 7825 3825
$Comp
L Device:C C1
U 1 1 5FF3EC5E
P 5850 5100
F 0 "C1" H 5965 5146 50  0000 L CNN
F 1 "C" H 5965 5055 50  0000 L CNN
F 2 "Capacitor_SMD:C_0603_1608Metric" H 5888 4950 50  0001 C CNN
F 3 "~" H 5850 5100 50  0001 C CNN
	1    5850 5100
	1    0    0    -1  
$EndComp
$Comp
L power:GND #PWR0116
U 1 1 5FF3F5DB
P 5850 5250
F 0 "#PWR0116" H 5850 5000 50  0001 C CNN
F 1 "GND" H 5855 5077 50  0000 C CNN
F 2 "" H 5850 5250 50  0001 C CNN
F 3 "" H 5850 5250 50  0001 C CNN
	1    5850 5250
	1    0    0    -1  
$EndComp
$Comp
L power:+3V3 #PWR0117
U 1 1 5FF3FBC8
P 5850 4950
F 0 "#PWR0117" H 5850 4800 50  0001 C CNN
F 1 "+3V3" H 5865 5123 50  0000 C CNN
F 2 "" H 5850 4950 50  0001 C CNN
F 3 "" H 5850 4950 50  0001 C CNN
	1    5850 4950
	1    0    0    -1  
$EndComp
$Comp
L Device:C C2
U 1 1 5FF45051
P 6300 5100
F 0 "C2" H 6415 5146 50  0000 L CNN
F 1 "C" H 6415 5055 50  0000 L CNN
F 2 "Capacitor_SMD:C_0603_1608Metric" H 6338 4950 50  0001 C CNN
F 3 "~" H 6300 5100 50  0001 C CNN
	1    6300 5100
	1    0    0    -1  
$EndComp
$Comp
L power:GND #PWR0118
U 1 1 5FF45057
P 6300 5250
F 0 "#PWR0118" H 6300 5000 50  0001 C CNN
F 1 "GND" H 6305 5077 50  0000 C CNN
F 2 "" H 6300 5250 50  0001 C CNN
F 3 "" H 6300 5250 50  0001 C CNN
	1    6300 5250
	1    0    0    -1  
$EndComp
$Comp
L power:+3V3 #PWR0119
U 1 1 5FF4505D
P 6300 4950
F 0 "#PWR0119" H 6300 4800 50  0001 C CNN
F 1 "+3V3" H 6315 5123 50  0000 C CNN
F 2 "" H 6300 4950 50  0001 C CNN
F 3 "" H 6300 4950 50  0001 C CNN
	1    6300 4950
	1    0    0    -1  
$EndComp
$Comp
L Device:C C3
U 1 1 5FF45A1D
P 6650 5100
F 0 "C3" H 6765 5146 50  0000 L CNN
F 1 "C" H 6765 5055 50  0000 L CNN
F 2 "Capacitor_SMD:C_0603_1608Metric" H 6688 4950 50  0001 C CNN
F 3 "~" H 6650 5100 50  0001 C CNN
	1    6650 5100
	1    0    0    -1  
$EndComp
$Comp
L power:GND #PWR0120
U 1 1 5FF45A23
P 6650 5250
F 0 "#PWR0120" H 6650 5000 50  0001 C CNN
F 1 "GND" H 6655 5077 50  0000 C CNN
F 2 "" H 6650 5250 50  0001 C CNN
F 3 "" H 6650 5250 50  0001 C CNN
	1    6650 5250
	1    0    0    -1  
$EndComp
$Comp
L power:+3V3 #PWR0121
U 1 1 5FF45A29
P 6650 4950
F 0 "#PWR0121" H 6650 4800 50  0001 C CNN
F 1 "+3V3" H 6665 5123 50  0000 C CNN
F 2 "" H 6650 4950 50  0001 C CNN
F 3 "" H 6650 4950 50  0001 C CNN
	1    6650 4950
	1    0    0    -1  
$EndComp
$Comp
L Device:C C4
U 1 1 5FF45E14
P 6375 3550
F 0 "C4" H 6490 3596 50  0000 L CNN
F 1 "C" H 6490 3505 50  0000 L CNN
F 2 "Capacitor_SMD:C_0603_1608Metric" H 6413 3400 50  0001 C CNN
F 3 "~" H 6375 3550 50  0001 C CNN
	1    6375 3550
	1    0    0    -1  
$EndComp
$Comp
L power:GND #PWR0122
U 1 1 5FF45E1A
P 6375 3700
F 0 "#PWR0122" H 6375 3450 50  0001 C CNN
F 1 "GND" H 6380 3527 50  0000 C CNN
F 2 "" H 6375 3700 50  0001 C CNN
F 3 "" H 6375 3700 50  0001 C CNN
	1    6375 3700
	1    0    0    -1  
$EndComp
$Comp
L Device:R R1
U 1 1 5FF46299
P 4375 2950
F 0 "R1" H 4445 2996 50  0000 L CNN
F 1 "R" H 4445 2905 50  0000 L CNN
F 2 "Resistor_SMD:R_0402_1005Metric" V 4305 2950 50  0001 C CNN
F 3 "~" H 4375 2950 50  0001 C CNN
	1    4375 2950
	1    0    0    -1  
$EndComp
Connection ~ 4375 3100
Wire Wire Line
	4375 3100 4925 3100
$Comp
L Device:R R2
U 1 1 5FF46936
P 4625 3050
F 0 "R2" H 4695 3096 50  0000 L CNN
F 1 "R" H 4695 3005 50  0000 L CNN
F 2 "Resistor_SMD:R_0402_1005Metric" V 4555 3050 50  0001 C CNN
F 3 "~" H 4625 3050 50  0001 C CNN
	1    4625 3050
	1    0    0    -1  
$EndComp
Connection ~ 4625 3200
Wire Wire Line
	4625 3200 4925 3200
$Comp
L power:+3V3 #PWR0124
U 1 1 5FF46E85
P 4375 2800
F 0 "#PWR0124" H 4375 2650 50  0001 C CNN
F 1 "+3V3" H 4390 2973 50  0000 C CNN
F 2 "" H 4375 2800 50  0001 C CNN
F 3 "" H 4375 2800 50  0001 C CNN
	1    4375 2800
	1    0    0    -1  
$EndComp
$Comp
L power:+3V3 #PWR0125
U 1 1 5FF4792F
P 4625 2900
F 0 "#PWR0125" H 4625 2750 50  0001 C CNN
F 1 "+3V3" H 4640 3073 50  0000 C CNN
F 2 "" H 4625 2900 50  0001 C CNN
F 3 "" H 4625 2900 50  0001 C CNN
	1    4625 2900
	1    0    0    -1  
$EndComp
Wire Wire Line
	6500 3300 6375 3300
Wire Wire Line
	6375 3300 6375 3400
$EndSCHEMATC
