Betafpv X Gemfan 3016 3-Blade
volt,amp,thrust_g,watt,power,g_per_W
7.71, 0.23, -0.07, 1.74, 0, -0.04
7.71, 0.00, -0.13, 0.00, 0, 0.00
7.71, 0.00, 0.02, 0.00, 0, 0.00
7.71, 0.00, -0.09, 0.00, 0, 0.00
7.71, 0.00, -0.02, 0.00, 0, 0.00
7.71, 0.00, -0.05, 0.00, 0, 0.00
7.71, 0.00, -0.01, 0.00, 0, 0.00
7.71, 0.00, -0.04, 0.00, 0, 0.00
7.71, 0.00, -0.13, 0.00, 0, 0.00
7.71, 0.00, -0.00, 0.00, 0, 0.00
7.71, 0.00, -0.01, 0.00, 0, 0.00
7.71, 0.00, 0.05, 0.00, 0, 0.00
7.71, 0.00, -0.03, 0.00, 0, 0.00
7.71, 0.00, 0.01, 0.00, 0, 0.00
7.71, 0.00, -0.10, 0.00, 0, 0.00
7.71, 0.00, -0.05, 0.00, 0, 0.00
7.71, 0.00, 0.02, 0.00, 0, 0.00
7.71, 0.00, -0.01, 0.00, 0, 0.00
7.71, 0.00, -0.03, 0.00, 0, 0.00
7.71, 0.00, 0.03, 0.00, 0, 0.00
7.71, 0.00, -0.03, 0.00, 0, 0.00
7.71, 0.00, -0.01, 0.00, 0, 0.00
7.71, 0.00, -0.02, 0.00, 0, 0.00
7.71, 0.00, -0.04, 0.00, 0, 0.00
7.71, 0.00, 0.15, 0.00, 0, 0.00
7.71, 0.00, 0.01, 0.00, 0, 0.00
7.71, 0.00, -0.01, 0.00, 0, 0.00
7.71, 0.00, -0.04, 0.00, 0, 0.00
7.71, 0.00, -0.05, 0.00, 0, 0.00
7.71, 0.00, -0.01, 0.00, 0, 0.00
7.71, 0.00, -0.04, 0.00, 0, 0.00
7.71, 0.00, 0.06, 0.00, 0, 0.00
7.71, 0.00, 0.05, 0.00, 0, 0.00
7.71, 0.00, 0.08, 0.00, 1, 0.00
7.71, 0.00, -0.01, 0.00, 2, 0.00
7.71, 0.00, -0.04, 0.00, 2, 0.00
7.71, 0.00, -0.08, 0.00, 2, 0.00
7.71, 0.00, 0.00, 0.00, 3, 0.00
7.71, 0.00, 0.01, 0.00, 4, 0.00
7.71, 0.00, -0.04, 0.00, 4, 0.00
7.71, 0.00, -0.03, 0.00, 4, 0.00
7.71, 0.00, -0.02, 0.00, 5, 0.00
7.71, 0.00, 0.01, 0.00, 6, 0.00
7.70, 0.02, 0.00, 0.14, 6, 0.03
7.70, 0.02, 0.08, 0.14, 6, 0.53
7.70, 0.04, 0.13, 0.29, 7, 0.43
7.70, 0.04, 0.30, 0.29, 8, 1.05
7.70, 0.04, 0.34, 0.29, 8, 1.19
7.70, 0.06, 0.37, 0.43, 8, 0.85
7.70, 0.06, 0.62, 0.43, 9, 1.43
7.70, 0.06, 0.60, 0.43, 10, 1.38
7.70, 0.08, 0.70, 0.58, 10, 1.20
7.70, 0.08, 0.87, 0.58, 10, 1.50
7.70, 0.09, 1.07, 0.72, 11, 1.48
7.70, 0.09, 1.21, 0.72, 12, 1.67
7.70, 0.09, 1.44, 0.72, 12, 1.99
7.70, 0.11, 1.57, 0.87, 12, 1.81
7.70, 0.13, 1.57, 1.01, 13, 1.55
7.70, 0.13, 1.82, 1.01, 14, 1.80
7.70, 0.13, 2.05, 1.01, 14, 2.02
7.69, 0.15, 2.21, 1.16, 14, 1.91
7.69, 0.15, 2.46, 1.16, 15, 2.13
7.69, 0.17, 2.82, 1.30, 16, 2.17
7.69, 0.17, 3.03, 1.30, 16, 2.33
7.69, 0.19, 3.14, 1.44, 16, 2.17
7.69, 0.21, 3.30, 1.59, 17, 2.08
7.69, 0.21, 3.68, 1.59, 18, 2.32
7.69, 0.23, 3.59, 1.73, 18, 2.07
7.69, 0.23, 4.18, 1.73, 18, 2.41
7.69, 0.24, 4.27, 1.88, 19, 2.27
7.69, 0.26, 4.49, 2.02, 20, 2.22
7.68, 0.26, 4.91, 2.02, 20, 2.43
7.68, 0.26, 4.94, 2.02, 20, 2.45
7.68, 0.28, 5.45, 2.17, 21, 2.52
7.68, 0.30, 6.63, 2.31, 22, 2.87
7.67, 0.32, 6.09, 2.45, 22, 2.48
7.67, 0.34, 6.61, 2.60, 22, 2.55
7.67, 0.34, 6.63, 2.60, 23, 2.56
7.67, 0.34, 7.19, 2.59, 24, 2.77
7.67, 0.34, 7.48, 2.59, 24, 2.88
7.67, 0.39, 7.67, 3.03, 24, 2.53
7.67, 0.38, 8.09, 2.88, 25, 2.81
7.66, 0.41, 8.56, 3.17, 26, 2.70
7.66, 0.43, 9.10, 3.31, 26, 2.75
7.66, 0.47, 9.06, 3.60, 26, 2.52
7.66, 0.47, 9.76, 3.60, 27, 2.71
7.66, 0.49, 9.87, 3.74, 28, 2.64
7.66, 0.49, 10.36, 3.74, 28, 2.77
7.66, 0.51, 11.02, 3.89, 28, 2.84
7.65, 0.53, 11.21, 4.03, 29, 2.78
7.66, 0.56, 11.31, 4.32, 30, 2.62
7.65, 0.55, 11.62, 4.17, 30, 2.79
7.65, 0.60, 12.04, 4.60, 30, 2.62
7.64, 0.58, 13.32, 4.45, 31, 2.99
7.64, 0.60, 13.18, 4.60, 32, 2.87
7.64, 0.60, 13.89, 4.60, 32, 3.02
7.64, 0.62, 13.99, 4.74, 32, 2.95
7.63, 0.64, 14.91, 4.88, 33, 3.06
7.64, 0.70, 15.28, 5.31, 34, 2.88
7.64, 0.68, 15.97, 5.17, 34, 3.09
7.63, 0.71, 16.01, 5.45, 34, 2.94
7.63, 0.73, 16.22, 5.59, 35, 2.90
7.63, 0.77, 17.00, 5.88, 36, 2.89
7.63, 0.79, 17.84, 6.02, 36, 2.96
7.62, 0.86, 18.05, 6.59, 36, 2.74
7.61, 0.83, 18.05, 6.30, 37, 2.87
7.62, 0.85, 18.70, 6.45, 38, 2.90
7.61, 0.88, 19.33, 6.73, 38, 2.87
7.61, 0.96, 20.09, 7.29, 38, 2.76
7.61, 0.96, 20.37, 7.29, 39, 2.79
7.61, 0.98, 21.19, 7.44, 40, 2.85
7.61, 0.88, 22.10, 6.72, 40, 3.29
7.60, 1.05, 22.65, 8.00, 40, 2.83
7.60, 1.00, 23.41, 7.57, 41, 3.09
7.60, 1.00, 23.55, 7.57, 42, 3.11
7.59, 1.02, 23.76, 7.70, 42, 3.08
7.59, 1.09, 25.42, 8.27, 42, 3.07
7.58, 1.07, 25.43, 8.13, 43, 3.13
7.58, 1.17, 25.46, 8.84, 44, 2.88
7.58, 1.17, 25.94, 8.83, 44, 2.94
7.58, 1.22, 26.97, 9.26, 44, 2.91
7.57, 1.26, 27.92, 9.54, 45, 2.93
7.58, 1.30, 28.82, 9.83, 46, 2.93
7.57, 1.28, 29.19, 9.68, 46, 3.02
7.57, 1.39, 29.04, 10.53, 46, 2.76
7.57, 1.24, 30.20, 9.39, 47, 3.22
7.57, 1.41, 31.23, 10.67, 48, 2.93
7.55, 1.41, 31.55, 10.65, 48, 2.96
7.55, 1.41, 32.57, 10.65, 48, 3.06
7.55, 1.22, 33.10, 9.23, 49, 3.59
7.55, 1.33, 33.56, 10.08, 50, 3.33
7.55, 1.60, 34.18, 12.06, 50, 2.83
7.54, 1.50, 35.46, 11.34, 50, 3.13
7.54, 1.56, 35.65, 11.77, 51, 3.03
7.54, 1.64, 36.02, 12.33, 52, 2.92
7.54, 1.52, 37.31, 11.47, 52, 3.25
7.54, 1.52, 37.46, 11.47, 52, 3.26
7.53, 1.54, 38.98, 11.61, 53, 3.36
7.52, 1.65, 38.86, 12.45, 54, 3.12
7.52, 1.64, 39.70, 12.30, 54, 3.23
7.52, 1.75, 41.02, 13.14, 54, 3.12
7.52, 1.75, 41.50, 13.14, 55, 3.16
7.51, 1.67, 42.62, 12.57, 56, 3.39
7.51, 1.73, 42.42, 12.99, 56, 3.27
7.51, 1.77, 43.30, 13.26, 56, 3.26
7.51, 1.86, 43.54, 13.97, 57, 3.12
7.50, 1.82, 44.32, 13.67, 58, 3.24
7.49, 1.94, 44.87, 14.51, 58, 3.09
7.49, 1.97, 46.85, 14.78, 58, 3.17
7.49, 1.97, 46.65, 14.78, 59, 3.16
7.49, 2.03, 47.02, 15.20, 60, 3.09
7.48, 2.09, 48.17, 15.61, 60, 3.09
7.48, 2.09, 49.36, 15.61, 60, 3.16
7.48, 2.24, 49.74, 16.72, 61, 2.97
7.46, 2.07, 51.58, 15.43, 62, 3.34
7.46, 2.09, 50.87, 15.57, 62, 3.27
7.46, 2.41, 52.02, 17.96, 62, 2.90
7.46, 2.18, 52.90, 16.26, 63, 3.25
7.45, 2.29, 52.54, 17.09, 64, 3.07
7.46, 2.24, 54.00, 16.68, 64, 3.24
7.45, 2.26, 54.63, 16.81, 64, 3.25
7.45, 2.26, 54.61, 16.80, 65, 3.25
7.45, 2.50, 57.87, 18.61, 66, 3.11
7.45, 2.44, 56.99, 18.20, 66, 3.13
7.44, 2.42, 58.30, 18.04, 66, 3.23
7.43, 2.46, 59.46, 18.31, 67, 3.25
7.43, 2.48, 59.01, 18.43, 68, 3.20
7.42, 2.44, 60.47, 18.14, 68, 3.33
7.42, 2.59, 60.49, 19.25, 68, 3.14
7.42, 2.63, 62.50, 19.52, 69, 3.20
7.42, 2.65, 62.27, 19.66, 70, 3.17
7.41, 2.74, 63.65, 20.34, 70, 3.13
7.40, 2.74, 63.48, 20.32, 70, 3.12
7.40, 2.82, 64.66, 20.88, 71, 3.10
7.40, 2.76, 65.50, 20.46, 72, 3.20
7.40, 2.86, 65.87, 21.14, 72, 3.12
7.39, 2.84, 68.13, 20.98, 72, 3.25
7.39, 2.97, 67.63, 21.95, 73, 3.08
7.39, 2.91, 68.47, 21.52, 74, 3.18
7.39, 2.97, 69.66, 21.94, 74, 3.18
7.38, 3.03, 70.52, 22.33, 74, 3.16
7.37, 3.03, 70.98, 22.32, 75, 3.18
7.37, 3.12, 71.45, 23.01, 76, 3.11
7.36, 3.08, 73.42, 22.69, 76, 3.23
7.36, 3.14, 73.27, 23.11, 76, 3.17
7.36, 3.20, 73.31, 23.53, 77, 3.12
7.36, 3.21, 74.10, 23.64, 78, 3.13
7.36, 3.23, 75.83, 23.78, 78, 3.19
7.35, 3.27, 75.41, 24.04, 78, 3.14
7.34, 3.36, 75.58, 24.71, 79, 3.06
7.34, 3.25, 77.24, 23.88, 80, 3.23
7.34, 3.27, 77.97, 24.00, 80, 3.25
7.33, 3.35, 79.46, 24.53, 80, 3.24
7.33, 3.36, 78.60, 24.67, 81, 3.19
7.32, 3.50, 79.16, 25.59, 82, 3.09
7.32, 3.48, 79.98, 25.45, 82, 3.14
7.31, 3.44, 80.97, 25.16, 82, 3.22
7.31, 3.55, 82.32, 25.96, 83, 3.17
7.31, 3.53, 83.19, 25.83, 84, 3.22
7.30, 3.55, 84.31, 25.94, 84, 3.25
7.30, 3.59, 85.95, 26.19, 84, 3.28
7.30, 3.61, 86.09, 26.33, 85, 3.27
7.29, 3.72, 86.01, 27.13, 86, 3.17
7.28, 3.68, 87.73, 26.84, 86, 3.27
7.27, 3.83, 90.57, 27.89, 86, 3.25
7.27, 3.74, 87.67, 27.18, 87, 3.23
7.27, 3.78, 89.07, 27.45, 88, 3.24
7.26, 3.89, 88.85, 28.25, 88, 3.15
7.25, 3.97, 90.65, 28.77, 88, 3.15
7.25, 3.95, 91.60, 28.61, 89, 3.20
7.24, 4.12, 94.36, 29.81, 90, 3.17
7.24, 3.93, 94.55, 28.45, 90, 3.32
7.24, 4.06, 94.40, 29.38, 90, 3.21
7.22, 4.29, 96.45, 30.96, 91, 3.12
7.22, 4.15, 96.30, 30.01, 92, 3.21
7.22, 4.25, 99.85, 30.66, 92, 3.26
7.21, 4.36, 100.23, 31.45, 92, 3.19
7.21, 4.42, 100.33, 31.83, 93, 3.15
7.20, 4.45, 98.33, 32.08, 94, 3.07
7.19, 4.51, 100.00, 32.45, 94, 3.08
7.19, 4.55, 101.84, 32.70, 94, 3.11
7.18, 4.62, 104.56, 33.21, 95, 3.15
7.18, 4.66, 102.53, 33.45, 96, 3.07
7.17, 4.72, 106.54, 33.83, 96, 3.15
7.16, 4.76, 105.16, 34.07, 96, 3.09
7.16, 4.83, 106.03, 34.58, 97, 3.07
7.15, 4.89, 107.31, 34.92, 98, 3.07
7.15, 4.91, 106.41, 35.06, 98, 3.04
7.13, 5.08, 107.71, 36.21, 98, 2.97
7.13, 5.08, 109.20, 36.18, 99, 3.02
7.13, 5.08, 112.65, 36.18, 100, 3.11
7.13, 5.04, 110.44, 35.91, 100, 3.08
