Gemfan WinDancer 3028-3-1
volt,amp,thrust_g,watt,power,g_per_W
7.84, 0.23, -0.06, 1.77, 0, -0.03
7.84, 0.00, -0.02, 0.00, 0, 0.00
7.84, 0.00, 0.04, 0.00, 0, 0.00
7.84, 0.00, -0.05, 0.00, 0, 0.00
7.84, 0.00, -0.04, 0.00, 0, 0.00
7.84, 0.00, 0.03, 0.00, 0, 0.00
7.84, 0.00, 0.01, 0.00, 0, 0.00
7.84, 0.00, 0.94, 0.00, 0, 0.00
7.84, 0.00, 0.04, 0.00, 0, 0.00
7.84, 0.00, 0.01, 0.00, 0, 0.00
7.84, 0.00, -0.04, 0.00, 0, 0.00
7.84, 0.00, 0.03, 0.00, 0, 0.00
7.84, 0.00, -0.03, 0.00, 0, 0.00
7.84, 0.00, -0.05, 0.00, 0, 0.00
7.84, -0.02, 0.07, -0.15, 0, 0.00
7.84, 0.00, -0.00, 0.00, 0, 0.00
7.84, 0.00, 0.02, 0.00, 0, 0.00
7.84, 0.00, 0.05, 0.00, 0, 0.00
7.84, 0.00, -0.07, 0.00, 0, 0.00
7.84, 0.00, -0.02, 0.00, 0, 0.00
7.84, 0.00, -0.00, 0.00, 0, 0.00
7.84, 0.00, 0.03, 0.00, 0, 0.00
7.84, 0.00, 0.09, 0.00, 0, 0.00
7.84, 0.00, 0.01, 0.00, 0, 0.00
7.84, 0.00, -0.01, 0.00, 0, 0.00
7.84, -0.02, -0.02, -0.15, 0, 0.00
7.84, 0.00, 0.03, 0.00, 0, 0.00
7.84, 0.00, 0.01, 0.00, 0, 0.00
7.84, 0.00, 0.09, 0.00, 0, 0.00
7.84, 0.00, 0.00, 0.00, 0, 0.00
7.84, 0.00, 0.00, 0.00, 1, 0.00
7.84, 0.00, 0.05, 0.00, 2, 0.00
7.84, 0.00, -0.08, 0.00, 2, 0.00
7.84, 0.00, 0.01, 0.00, 2, 0.00
7.84, 0.00, 0.00, 0.00, 3, 0.00
7.84, 0.00, -0.00, 0.00, 4, 0.00
7.84, 0.00, 0.12, 0.00, 4, 0.00
7.84, 0.00, -0.01, 0.00, 4, 0.00
7.84, 0.02, 0.03, 0.15, 5, 0.17
7.84, 0.04, 0.15, 0.29, 6, 0.51
7.84, 0.02, 0.08, 0.15, 6, 0.51
7.84, 0.00, 0.21, 0.00, 6, 0.00
7.84, 0.02, 0.25, 0.15, 7, 1.71
7.84, 0.04, 0.34, 0.29, 8, 1.16
7.84, 0.04, 0.40, 0.29, 8, 1.35
7.84, 0.06, 0.57, 0.44, 8, 1.30
7.84, 0.06, 0.77, 0.44, 9, 1.75
7.84, 0.06, 0.79, 0.44, 10, 1.79
7.84, 0.08, 1.03, 0.59, 10, 1.76
7.84, 0.08, 1.17, 0.59, 10, 1.99
7.84, 0.08, 1.35, 0.59, 11, 2.30
7.84, 0.09, 1.46, 0.74, 12, 1.98
7.83, 0.11, 1.62, 0.88, 12, 1.84
7.83, 0.11, 1.89, 0.88, 12, 2.14
7.83, 0.11, 2.34, 0.88, 13, 2.65
7.83, 0.13, 2.57, 1.03, 14, 2.50
7.83, 0.13, 2.85, 1.03, 14, 2.77
7.82, 0.15, 3.05, 1.18, 14, 2.59
7.82, 0.15, 3.39, 1.18, 15, 2.88
7.82, 0.17, 3.61, 1.32, 16, 2.73
7.82, 0.17, 3.88, 1.32, 16, 2.93
7.82, 0.19, 4.13, 1.47, 16, 2.81
7.82, 0.19, 4.35, 1.47, 17, 2.96
7.82, 0.21, 4.42, 1.62, 18, 2.73
7.82, 0.23, 4.55, 1.76, 18, 2.58
7.82, 0.24, 5.05, 1.91, 18, 2.64
7.82, 0.28, 5.72, 2.20, 19, 2.59
7.81, 0.28, 6.05, 2.20, 20, 2.74
7.81, 0.28, 6.28, 2.20, 20, 2.85
7.81, 0.28, 6.65, 2.20, 20, 3.02
7.81, 0.30, 6.80, 2.35, 21, 2.90
7.81, 0.34, 7.18, 2.64, 22, 2.72
7.81, 0.32, 8.10, 2.49, 22, 3.25
7.80, 0.38, 8.15, 2.93, 22, 2.78
7.80, 0.36, 8.79, 2.79, 23, 3.16
7.80, 0.41, 8.99, 3.23, 24, 2.79
7.79, 0.38, 9.18, 2.93, 24, 3.13
7.79, 0.41, 9.74, 3.22, 24, 3.02
7.79, 0.41, 10.22, 3.22, 25, 3.17
7.79, 0.47, 10.60, 3.66, 26, 2.90
7.79, 0.47, 11.14, 3.66, 26, 3.04
7.79, 0.43, 11.59, 3.37, 26, 3.44
7.79, 0.47, 12.42, 3.66, 27, 3.39
7.78, 0.53, 12.11, 4.10, 28, 2.96
7.78, 0.56, 12.66, 4.39, 28, 2.88
7.78, 0.55, 13.43, 4.24, 28, 3.17
7.78, 0.62, 13.65, 4.82, 29, 2.83
7.78, 0.58, 14.74, 4.53, 30, 3.25
7.77, 0.64, 14.63, 4.97, 30, 2.95
7.77, 0.64, 15.74, 4.97, 30, 3.17
7.76, 0.68, 15.53, 5.25, 31, 2.96
7.76, 0.66, 16.56, 5.11, 32, 3.24
7.76, 0.68, 17.12, 5.25, 32, 3.26
7.76, 0.73, 17.42, 5.69, 32, 3.06
7.75, 0.73, 17.64, 5.68, 33, 3.10
7.75, 0.71, 18.23, 5.54, 34, 3.29
7.75, 0.77, 19.08, 5.97, 34, 3.19
7.75, 0.73, 19.77, 5.68, 34, 3.48
7.74, 0.90, 19.91, 6.98, 35, 2.85
7.74, 0.81, 20.89, 6.26, 36, 3.34
7.73, 0.98, 20.95, 7.56, 36, 2.77
7.74, 0.92, 21.77, 7.13, 36, 3.05
7.73, 0.94, 22.24, 7.26, 37, 3.06
7.73, 0.92, 22.98, 7.12, 38, 3.23
7.72, 0.94, 24.26, 7.26, 38, 3.34
7.73, 1.03, 23.96, 7.99, 38, 3.00
7.72, 1.09, 24.49, 8.41, 39, 2.91
7.72, 0.96, 25.29, 7.40, 40, 3.42
7.71, 1.26, 26.04, 9.71, 40, 2.68
7.72, 1.20, 26.69, 9.28, 40, 2.88
7.71, 1.20, 27.96, 9.28, 41, 3.01
7.70, 1.15, 28.33, 8.83, 42, 3.21
7.70, 1.17, 29.27, 8.98, 42, 3.26
7.70, 1.20, 30.21, 9.26, 42, 3.26
7.69, 1.20, 29.56, 9.25, 43, 3.19
7.69, 1.26, 31.70, 9.68, 44, 3.28
7.69, 1.30, 30.60, 9.97, 44, 3.07
7.68, 1.39, 32.32, 10.68, 44, 3.03
7.67, 1.43, 33.37, 10.96, 45, 3.04
7.68, 1.41, 33.63, 10.83, 46, 3.11
7.67, 1.43, 35.31, 10.95, 46, 3.22
7.67, 1.47, 34.85, 11.24, 46, 3.10
7.66, 1.37, 36.08, 10.51, 47, 3.43
7.66, 1.41, 36.70, 10.79, 48, 3.40
7.65, 1.45, 37.54, 11.07, 48, 3.39
7.66, 1.50, 37.86, 11.51, 48, 3.29
7.65, 1.60, 38.26, 12.22, 49, 3.13
7.65, 1.62, 38.89, 12.37, 50, 3.14
7.64, 1.48, 40.27, 11.34, 50, 3.55
7.63, 1.58, 40.26, 12.05, 50, 3.34
7.63, 1.60, 41.51, 12.19, 51, 3.40
7.63, 1.77, 42.27, 13.49, 52, 3.13
7.62, 1.67, 42.84, 12.75, 52, 3.36
7.62, 1.79, 43.92, 13.61, 52, 3.23
7.61, 1.86, 44.75, 14.17, 53, 3.16
7.61, 1.86, 44.91, 14.17, 54, 3.17
7.60, 1.86, 45.89, 14.15, 54, 3.24
7.61, 1.95, 46.62, 14.87, 54, 3.13
7.60, 1.97, 47.48, 14.99, 55, 3.17
7.59, 1.95, 48.59, 14.84, 56, 3.27
7.60, 2.07, 48.26, 15.71, 56, 3.07
7.59, 2.07, 49.46, 15.69, 56, 3.15
7.58, 2.14, 49.51, 16.25, 57, 3.05
7.57, 2.14, 50.62, 16.23, 58, 3.12
7.57, 2.11, 51.73, 15.94, 58, 3.24
7.57, 2.27, 53.21, 17.21, 58, 3.09
7.57, 2.26, 52.82, 17.07, 59, 3.09
7.56, 2.20, 52.85, 16.63, 60, 3.18
7.56, 2.33, 53.47, 17.62, 60, 3.03
7.55, 2.39, 54.96, 18.02, 60, 3.05
7.54, 2.22, 54.93, 16.73, 61, 3.28
7.55, 2.41, 56.56, 18.16, 62, 3.11
7.54, 2.42, 56.26, 18.29, 62, 3.08
7.54, 2.29, 56.75, 17.30, 62, 3.28
7.53, 2.73, 59.02, 20.52, 63, 2.88
7.54, 2.86, 59.09, 21.53, 64, 2.74
7.51, 2.74, 59.87, 20.62, 64, 2.90
7.52, 2.69, 59.99, 20.21, 64, 2.97
7.52, 2.97, 61.68, 22.33, 65, 2.76
7.51, 2.89, 63.66, 21.73, 66, 2.93
7.51, 2.88, 63.92, 21.59, 66, 2.96
7.51, 2.88, 64.56, 21.59, 66, 2.99
7.50, 2.86, 65.17, 21.43, 67, 3.04
7.49, 2.95, 65.07, 22.10, 68, 2.94
7.48, 2.93, 67.54, 21.92, 68, 3.08
7.48, 2.88, 68.05, 21.50, 68, 3.17
7.47, 3.03, 67.74, 22.61, 69, 3.00
7.46, 3.05, 67.76, 22.73, 70, 2.98
7.46, 3.08, 70.09, 23.01, 70, 3.05
7.46, 3.16, 69.80, 23.55, 70, 2.96
7.45, 3.20, 70.59, 23.81, 71, 2.96
7.45, 3.21, 70.80, 23.95, 72, 2.96
7.45, 3.27, 73.62, 24.35, 72, 3.02
7.44, 3.21, 74.50, 23.91, 72, 3.12
7.44, 3.29, 73.65, 24.47, 73, 3.01
7.43, 3.31, 73.96, 24.59, 74, 3.01
7.43, 3.36, 74.25, 24.99, 74, 2.97
7.42, 3.33, 75.81, 24.69, 74, 3.07
7.42, 3.38, 74.36, 25.09, 75, 2.96
7.42, 3.40, 77.05, 25.23, 76, 3.05
7.41, 3.46, 75.28, 25.63, 76, 2.94
7.41, 3.52, 78.55, 26.05, 76, 3.02
7.40, 3.61, 78.44, 26.72, 77, 2.94
7.39, 3.59, 78.62, 26.54, 78, 2.96
7.39, 3.65, 79.53, 26.96, 78, 2.95
7.38, 3.65, 80.85, 26.91, 78, 3.00
7.39, 3.70, 80.71, 27.35, 79, 2.95
7.38, 3.70, 82.71, 27.33, 80, 3.03
7.37, 3.72, 83.57, 27.44, 80, 3.05
7.37, 3.72, 84.95, 27.42, 80, 3.10
7.36, 3.83, 83.23, 28.23, 81, 2.95
7.36, 3.93, 83.85, 28.90, 82, 2.90
7.36, 3.89, 85.78, 28.62, 82, 3.00
7.35, 3.98, 87.34, 29.29, 82, 2.98
7.34, 3.97, 87.61, 29.10, 83, 3.01
7.33, 4.08, 88.22, 29.91, 84, 2.95
7.33, 4.08, 90.15, 29.88, 84, 3.02
7.33, 3.98, 90.49, 29.19, 84, 3.10
7.32, 4.08, 89.73, 29.86, 85, 3.01
7.31, 4.10, 91.48, 29.97, 86, 3.05
7.31, 4.19, 91.63, 30.63, 86, 2.99
7.30, 4.19, 94.11, 30.58, 86, 3.08
7.30, 4.27, 92.94, 31.13, 87, 2.99
7.28, 4.27, 93.96, 31.08, 88, 3.02
7.28, 4.30, 97.75, 31.35, 88, 3.12
7.28, 4.36, 96.72, 31.76, 88, 3.04
7.27, 4.42, 97.29, 32.10, 89, 3.03
7.27, 4.51, 96.53, 32.78, 90, 2.94
7.26, 4.61, 99.63, 33.43, 90, 2.98
7.25, 4.62, 100.42, 33.54, 90, 2.99
7.25, 4.74, 99.85, 34.33, 91, 2.91
7.24, 4.76, 100.57, 34.41, 92, 2.92
7.23, 4.72, 102.55, 34.11, 92, 3.01
7.23, 4.77, 101.11, 34.52, 92, 2.93
7.22, 4.85, 103.23, 35.00, 93, 2.95
7.21, 4.89, 102.67, 35.25, 94, 2.91
7.21, 5.02, 104.45, 36.20, 94, 2.89
7.19, 5.13, 107.75, 36.92, 94, 2.92
7.19, 5.11, 107.11, 36.75, 95, 2.91
7.18, 5.08, 106.72, 36.45, 96, 2.93
7.18, 5.21, 108.55, 37.36, 96, 2.91
7.16, 5.32, 111.86, 38.11, 96, 2.94
7.16, 5.38, 110.62, 38.48, 97, 2.87
7.15, 5.36, 110.16, 38.31, 98, 2.88
7.15, 5.55, 113.55, 39.63, 98, 2.87
7.13, 5.60, 112.57, 39.96, 98, 2.82
7.13, 5.56, 112.52, 39.69, 99, 2.83
7.13, 5.58, 114.80, 39.83, 100, 2.88
7.13, 5.58, 113.62, 39.79, 100, 2.86
